<svg width="34" height="35" viewBox="0 0 34 35" fill="none" xmlns="http://www.w3.org/2000/svg">
<path d="M6.21154 18.7419C4.68487 20.6755 5.00954 23.4861 6.9367 25.0194L11.8553 28.933C13.7825 30.4663 16.5824 30.1419 18.109 28.2082L23.3837 21.5275C25.1865 19.2442 22.5874 16.1144 20.0248 17.4829C17.961 18.585 15.5782 16.6892 16.1759 14.4204C16.9179 11.6034 13.289 9.77784 11.4863 12.0612L6.21154 18.7419Z" fill="#4DB0F4"/>
<path d="M6.30193 30.9059C7.83692 32.1384 10.076 31.8891 11.3031 30.3489C12.5303 28.8088 12.2807 26.5612 10.7457 25.3287C9.21067 24.0962 6.97154 24.3456 5.74444 25.8857C4.51734 27.4258 4.76693 29.6734 6.30193 30.9059Z" fill="white"/>
<path d="M16.0863 6.2232C17.6132 4.28923 20.4136 3.9647 22.3412 5.49835L27.2585 9.41085C29.186 10.9445 29.5107 13.7556 27.9838 15.6895L22.7023 22.3788C20.8994 24.6623 17.2704 22.836 18.0133 20.0191C18.6116 17.7499 16.2282 15.8535 14.1641 16.9565C11.6018 18.3257 9.00192 15.196 10.8048 12.9125L16.0863 6.2232Z" fill="#9DE8F8"/>
<path d="M27.5033 4.02421C29.0491 5.24299 29.3185 7.48833 28.1051 9.03932C26.8917 10.5903 24.6548 10.8596 23.109 9.64082C21.5632 8.42204 21.2937 6.1767 22.5072 4.62572C23.7206 3.07473 25.9574 2.80543 27.5033 4.02421Z" fill="white"/>
<path d="M28.0031 14.7812C30.2709 16.5279 30.6805 19.7737 28.9178 22.0308L24.2693 27.9833C22.5234 30.219 19.287 30.6289 17.0406 28.8987L15.6405 27.8204C12.9879 25.7773 13.706 21.6161 16.8939 20.5562C18.4897 20.0257 19.6175 18.5808 19.7584 16.9154C20.0461 13.5128 24.0213 11.7145 26.7341 13.8039L28.0031 14.7812Z" fill="#276AF5"/>
<path d="M16.8688 6.08268C14.6731 4.24539 11.4288 4.5574 9.6226 6.77957L4.85923 12.6398C3.07016 14.8409 3.38291 18.1005 5.5578 19.9203L6.91335 21.0546C9.48153 23.2035 13.3677 21.5861 13.6973 18.2311C13.8623 16.5518 15.0187 15.1298 16.6062 14.626C19.8496 13.5966 20.7238 9.30842 18.0973 7.11068L16.8688 6.08268Z" fill="#276AF5"/>
</svg>
